<?xml version="1.0" standalone="no"?>
<!DOCTYPE svg PUBLIC "-//W3C//DTD SVG 1.1//EN" "http://www.w3.org/Graphics/SVG/1.1/DTD/svg11.dtd" >
<svg xmlns="http://www.w3.org/2000/svg">
<metadata>Generated by IcoMoon</metadata>
<defs>
<font id="icomoon" horiz-adv-x="1024">
<font-face units-per-em="1024" ascent="960" descent="-64" />
<missing-glyph horiz-adv-x="1024" />
<glyph unicode="&#x20;" horiz-adv-x="512" d="" />
<glyph unicode="&#xe900;" glyph-name="add-to-list" d="M993.28 512h-174.080v174.080c0 30.72-20.48 30.72-51.2 30.72s-51.2 0-51.2-30.72v-174.080h-174.080c-30.72 0-30.72-20.48-30.72-51.2s0-51.2 30.72-51.2h174.080v-174.080c0-30.72 20.48-30.72 51.2-30.72s51.2 0 51.2 30.72v174.080h174.080c30.72 0 30.72 20.48 30.72 51.2s0 51.2-30.72 51.2zM378.88 512h-348.16c-30.72 0-30.72-20.48-30.72-51.2s0-51.2 30.72-51.2h348.16c30.72 0 30.72 20.48 30.72 51.2s0 51.2-30.72 51.2zM378.88 256h-348.16c-30.72 0-30.72-20.48-30.72-51.2s0-51.2 30.72-51.2h348.16c30.72 0 30.72 20.48 30.72 51.2s0 51.2-30.72 51.2zM378.88 768h-348.16c-30.72 0-30.72-20.48-30.72-51.2s0-51.2 30.72-51.2h348.16c30.72 0 30.72 20.48 30.72 51.2s0 51.2-30.72 51.2z" />
<glyph unicode="&#xe901;" glyph-name="chevron-down" d="M231.219 586.342c22.323 22.835 53.402 24.627 80.691 0l200.090-191.846 200.090 191.846c27.29 24.627 58.419 22.835 80.589 0 22.323-22.784 20.89-61.286 0-82.688-20.787-21.402-240.384-230.502-240.384-230.502-11.11-11.418-25.702-17.152-40.294-17.152s-29.184 5.734-40.397 17.152c0 0-219.494 209.101-240.384 230.502-20.941 21.402-22.323 59.904 0 82.688z" />
<glyph unicode="&#xe902;" glyph-name="chevron-left" d="M637.542 741.581c22.835-22.323 24.627-53.402 0-80.691l-191.846-200.090 191.846-200.090c24.627-27.29 22.835-58.419 0-80.589-22.784-22.323-61.286-20.89-82.688 0-21.402 20.787-230.502 240.384-230.502 240.384-11.418 11.11-17.152 25.702-17.152 40.294s5.734 29.184 17.152 40.397c0 0 209.101 219.494 230.502 240.384 21.402 20.941 59.904 22.323 82.688 0z" />
<glyph unicode="&#xe903;" glyph-name="chevron-right" d="M469.146 741.581c21.402-20.89 230.502-240.384 230.502-240.384 11.418-11.213 17.152-25.805 17.152-40.397s-5.734-29.184-17.152-40.294c0 0-209.101-219.597-230.502-240.384-21.402-20.89-59.904-22.323-82.688 0-22.835 22.221-24.627 53.299 0 80.589l191.846 200.090-191.846 200.090c-24.627 27.29-22.835 58.419 0 80.691 22.784 22.323 61.286 20.941 82.688 0z" />
<glyph unicode="&#xe904;" glyph-name="chevron-small-down" d="M687.002 570.419c13.875 13.722 36.301 13.722 50.074 0 13.824-13.722 13.926-35.891 0-49.613l-200.090-196.096c-13.824-13.722-36.198-13.722-50.125 0l-200.090 196.096c-13.824 13.67-13.824 35.891 0 49.613 13.875 13.722 36.301 13.722 50.074 0l175.155-160.819 175.002 160.819z" />
<glyph unicode="&#xe905;" glyph-name="chevron-small-left" d="M621.619 285.798c13.722-13.875 13.722-36.301 0-50.074-13.722-13.824-35.891-13.926-49.613 0l-196.096 200.090c-13.722 13.824-13.722 36.198 0 50.125l196.096 200.090c13.67 13.824 35.891 13.824 49.613 0 13.722-13.875 13.722-36.301 0-50.074l-160.819-175.155 160.819-175.002z" />
<glyph unicode="&#xe906;" glyph-name="chevron-small-right" d="M563.2 460.8l-160.819 175.104c-13.722 13.824-13.722 36.198 0 50.074 13.722 13.824 35.891 13.824 49.613 0l196.096-200.090c13.722-13.875 13.722-36.301 0-50.125l-196.096-200.090c-13.67-13.926-35.891-13.824-49.613 0-13.722 13.773-13.722 36.198 0 50.074l160.819 175.053z" />
<glyph unicode="&#xe907;" glyph-name="chevron-small-up" d="M336.998 351.181c-13.875-13.722-36.301-13.722-50.074 0s-13.926 35.891 0 49.613l200.090 196.096c13.824 13.722 36.198 13.722 50.125 0l200.090-196.096c13.824-13.67 13.824-35.891 0-49.613-13.875-13.722-36.301-13.722-50.125 0l-175.104 160.819-175.002-160.819z" />
<glyph unicode="&#xe908;" glyph-name="flow-tree" d="M921.6 213.811v118.989c0 98.97-80.23 179.2-179.2 179.2h-102.4c-42.394 0-76.8 34.406-76.8 76.8v118.989c42.24 19.456 71.68 61.85 71.68 111.411 0 67.891-54.989 122.88-122.88 122.88s-122.88-54.989-122.88-122.88c0-49.51 29.491-91.955 71.68-111.411v-118.989c0-42.394-34.406-76.8-76.8-76.8h-102.4c-98.97 0-179.2-80.23-179.2-179.2v-118.989c-42.24-19.456-71.68-61.901-71.68-111.411 0-67.891 54.989-122.88 122.88-122.88s122.88 55.040 122.88 122.88c0 49.51-29.491 91.955-71.68 111.411v118.989c0 42.394 34.406 76.8 76.8 76.8h102.4c27.597 0 53.453 6.758 76.8 17.92v-213.709c-42.24-19.456-71.68-61.901-71.68-111.411 0-67.891 54.989-122.88 122.88-122.88s122.88 55.040 122.88 122.88c0 49.51-29.491 91.955-71.68 111.411v213.709c23.347-11.162 49.203-17.92 76.8-17.92h102.4c42.394 0 76.8-34.406 76.8-76.8v-118.989c-42.24-19.456-71.68-61.85-71.68-111.411 0-67.891 54.989-122.88 122.88-122.88s122.88 55.040 122.88 122.88c0 49.51-29.44 91.955-71.68 111.411zM512 890.112c39.117 0 70.861-31.693 70.861-70.912 0-39.117-31.744-70.912-70.861-70.912-39.168 0-70.861 31.795-70.861 70.912 0 39.219 31.693 70.912 70.861 70.912zM153.6 31.488c-39.219 0-70.912 31.795-70.912 70.912 0 39.219 31.693 70.912 70.912 70.912 39.117 0 70.861-31.693 70.861-70.912 0-39.117-31.744-70.912-70.861-70.912zM512 31.488c-39.219 0-70.912 31.795-70.912 70.912 0 39.219 31.693 70.912 70.912 70.912 39.117 0 70.861-31.693 70.861-70.912 0-39.117-31.744-70.912-70.861-70.912zM870.4 31.488c-39.219 0-70.912 31.795-70.912 70.912 0 39.219 31.693 70.912 70.912 70.912 39.117 0 70.861-31.693 70.861-70.912 0-39.117-31.744-70.912-70.861-70.912z" />
<glyph unicode="&#xe909;" glyph-name="trash" d="M173.517 608.614l56.371-558.49c3.123-23.603 117.094-101.222 282.112-101.325 165.12 0.102 279.091 77.722 282.163 101.325l56.422 558.49c-86.221-48.23-215.091-71.014-338.586-71.014-123.392 0-252.314 22.784-338.483 71.014zM674.202 895.488l-43.981 48.691c-16.998 24.218-35.43 28.621-71.322 28.621h-93.747c-35.84 0-54.323-4.403-71.27-28.621l-43.981-48.691c-131.584-22.989-227.021-83.968-227.021-128.973v-8.704c0-79.206 174.234-143.411 389.12-143.411 214.938 0 389.171 64.205 389.171 143.411v8.704c0 45.005-95.386 105.984-226.97 128.973zM617.984 750.592l-54.784 68.608h-102.4l-54.682-68.608h-87.040c0 0 95.334 113.715 108.083 129.126 9.728 11.776 19.661 16.282 32.563 16.282h104.602c12.954 0 22.886-4.506 32.614-16.282 12.698-15.411 108.083-129.126 108.083-129.126h-87.040z" />
<glyph unicode="&#xe90a;" glyph-name="area-graph" d="M1024 870.4v-819.2h-1007.616c-16.282 0-21.299 10.701-11.059 23.808l228.813 294.298c10.189 13.107 28.314 14.49 40.397 3.174l72.653-68.301c12.032-11.315 29.286-9.114 38.246 4.915l156.006 242.688c8.96 13.978 26.061 15.974 37.939 4.608l111.155-107.315c11.878-11.52 28.621-9.216 37.069 5.12l262.81 398.592c8.499 14.438 20.787 17.613 33.587 17.613z" />
<glyph unicode="&#xe90b;" glyph-name="check" d="M424.653 102.502c-22.272 0-43.366 10.394-56.883 28.314l-182.938 241.715c-23.808 31.386-17.613 76.083 13.824 99.891 31.488 23.91 76.186 17.613 99.994-13.824l120.371-158.925 302.643 485.99c20.838 33.382 64.87 43.622 98.355 22.784 33.434-20.787 43.725-64.819 22.835-98.304l-357.581-573.952c-12.39-20.019-33.843-32.512-57.344-33.587-1.126-0.102-2.15-0.102-3.277-0.102z" />
<glyph unicode="&#xe90c;" glyph-name="clipboard" d="M798.72 870.4l-61.44-153.6h-450.56l-61.44 153.6c-39.475 0-71.68-32.205-71.68-71.68v-778.24c0-39.424 32.205-71.68 71.629-71.68h573.44c39.424 0 71.68 32.307 71.68 71.68v778.24c0.051 39.475-32.256 71.68-71.629 71.68zM696.32 768l46.080 102.4h-111.667l-36.813 102.4h-163.84l-36.864-102.4h-111.616l46.029-102.4h368.691z" />
<glyph unicode="&#xe90d;" glyph-name="globe" d="M512 952.32c-271.104 0-491.571-220.518-491.571-491.52s220.467-491.52 491.571-491.52c271.002 0 491.52 220.518 491.52 491.52s-220.518 491.52-491.52 491.52zM931.226 460.8c0-95.898-32.563-184.32-86.835-254.976-15.36 11.981-31.693 44.39-16.333 77.978 15.514 33.792 19.558 112.026 15.974 142.49-3.379 30.413-19.2 103.68-62.157 104.397-42.906 0.614-72.346 14.797-97.843 65.69-52.89 105.882 99.277 126.208 46.387 184.781-14.797 16.486-91.29-67.686-102.502 44.493-0.717 8.038 6.912 20.070 17.203 32.563 166.093-55.808 286.106-212.838 286.106-397.414zM454.4 875.878c-10.035-19.558-36.506-27.494-52.582-42.189-35.021-31.693-50.074-27.29-68.915-57.702-18.995-30.413-80.23-74.189-80.23-96.205s30.925-47.923 46.387-42.906c15.462 5.12 56.269 4.813 80.23-3.584 24.013-8.499 200.397-16.998 144.179-166.093-17.818-47.411-95.898-39.424-116.685-117.914-3.123-11.52-13.926-60.723-14.592-76.8-1.28-24.883 17.613-118.682-6.4-118.682-24.115 0-88.986 83.917-88.986 99.123s-16.794 68.506-16.794 114.176c0 45.619-77.722 44.902-77.722 105.574 0 54.682 42.138 81.92 32.666 108.186-9.267 26.112-83.302 26.982-114.176 30.208 53.914 139.827 180.736 243.61 333.619 264.806zM380.109 62.976c25.19 13.312 27.75 30.515 50.586 31.386 26.112 1.178 47.36 10.189 76.8 16.691 26.112 5.683 72.858 32.205 113.971 35.584 34.714 2.816 103.168-1.792 121.6-35.277-66.304-44.083-145.818-69.786-231.117-69.786-46.029 0-90.368 7.629-131.84 21.402z" />
<glyph unicode="&#xe90e;" glyph-name="grid" d="M409.6 768h-153.6c-28.314 0-51.2-22.886-51.2-51.2v-153.6c0-28.262 22.886-51.2 51.2-51.2h153.6c28.314 0 51.2 22.938 51.2 51.2v153.6c0 28.262-22.886 51.2-51.2 51.2zM768 768h-153.6c-28.314 0-51.2-22.886-51.2-51.2v-153.6c0-28.262 22.886-51.2 51.2-51.2h153.6c28.314 0 51.2 22.938 51.2 51.2v153.6c0 28.262-22.886 51.2-51.2 51.2zM409.6 409.6h-153.6c-28.314 0-51.2-22.886-51.2-51.2v-153.6c0-28.262 22.886-51.2 51.2-51.2h153.6c28.314 0 51.2 22.938 51.2 51.2v153.6c0 28.262-22.886 51.2-51.2 51.2zM768 409.6h-153.6c-28.314 0-51.2-22.886-51.2-51.2v-153.6c0-28.262 22.886-51.2 51.2-51.2h153.6c28.314 0 51.2 22.938 51.2 51.2v153.6c0 28.262-22.886 51.2-51.2 51.2z" />
<glyph unicode="&#xe90f;" glyph-name="home" d="M956.006 409.6h-85.606v-307.2c0-22.784-9.933-51.2-51.2-51.2h-204.8v307.2h-204.8v-307.2h-204.8c-41.267 0-51.2 28.416-51.2 51.2v307.2h-85.606c-30.618 0-24.064 16.589-3.072 38.298l410.829 411.238c9.984 10.342 23.091 15.462 36.25 15.974 13.158-0.512 26.266-5.581 36.25-15.974l410.778-411.187c21.043-21.76 27.597-38.349-3.021-38.349z" />
<glyph unicode="&#xe910;" glyph-name="list" d="M737.28 512h-296.96c-28.262 0-30.72-22.886-30.72-51.2s2.458-51.2 30.72-51.2h296.96c28.262 0 30.72 22.886 30.72 51.2s-2.458 51.2-30.72 51.2zM839.68 256h-399.36c-28.262 0-30.72-22.886-30.72-51.2s2.458-51.2 30.72-51.2h399.36c28.262 0 30.72 22.886 30.72 51.2s-2.458 51.2-30.72 51.2zM440.32 665.6h399.36c28.262 0 30.72 22.886 30.72 51.2s-2.458 51.2-30.72 51.2h-399.36c-28.262 0-30.72-22.886-30.72-51.2s2.458-51.2 30.72-51.2zM276.48 512h-92.16c-28.262 0-30.72-22.886-30.72-51.2s2.458-51.2 30.72-51.2h92.16c28.262 0 30.72 22.886 30.72 51.2s-2.458 51.2-30.72 51.2zM276.48 256h-92.16c-28.262 0-30.72-22.886-30.72-51.2s2.458-51.2 30.72-51.2h92.16c28.262 0 30.72 22.886 30.72 51.2s-2.458 51.2-30.72 51.2zM276.48 768h-92.16c-28.262 0-30.72-22.886-30.72-51.2s2.458-51.2 30.72-51.2h92.16c28.262 0 30.72 22.886 30.72 51.2s-2.458 51.2-30.72 51.2z" />
<glyph unicode="&#xe911;" glyph-name="magnifying-glass" d="M898.304 180.89l-193.485 193.485c29.184 47.872 45.978 104.192 45.978 164.352 0 174.95-151.603 326.502-326.554 326.502-174.95 0.051-316.723-141.773-316.723-316.723 0-174.899 151.603-326.502 326.502-326.502 58.214 0 112.64 15.821 159.488 43.213l194.509-194.611c19.046-18.995 49.92-18.995 68.915 0l48.282 48.282c18.995 18.995 12.083 43.008-6.912 62.003zM205.005 548.506c0 121.139 98.15 219.29 219.238 219.29 121.139 0 229.069-107.878 229.069-229.069 0-121.088-98.202-219.29-219.29-219.29-121.139 0.051-229.018 107.981-229.018 229.069z" />
<glyph unicode="&#xe912;" glyph-name="new-message" d="M930.509 879.309c-56.422 56.422-106.598 39.782-106.598 39.782l-442.317-441.958-74.394-221.133 221.030 74.445 442.061 442.266c0 0 16.589 50.176-39.782 106.598zM542.976 378.624l-24.115-24.064-75.418-25.6c-5.325 12.288-11.981 24.422-25.498 37.888-13.517 13.517-25.6 20.173-37.888 25.498l25.6 75.418 24.115 24.064c0 0 39.731 4.557 78.694-34.458 39.014-38.963 34.509-78.746 34.509-78.746zM819.2 102.4h-665.6v665.6h256l102.4 102.4h-358.4c-56.32 0-102.4-46.080-102.4-102.4v-665.6c0-56.32 46.080-102.4 102.4-102.4h665.6c56.32 0 102.4 46.080 102.4 102.4v358.4l-102.4-102.4v-256z" />
<glyph unicode="&#xe913;" glyph-name="new" d="M956.928 340.787l-88.422 78.746c-25.6 22.784-25.6 60.109 0 82.893l88.422 78.797c25.6 22.784 18.79 43.981-15.155 47.309l-117.248 11.11c-33.894 3.174-52.224 32.41-40.499 64.819l62.208 173.21c11.674 32.512-2.611 44.288-31.693 26.317l-138.291-85.504c-29.082-18.125-66.714-8.192-83.507 21.811l-50.074 89.395c-16.845 30.106-44.646 30.208-61.798 0.41l-46.541-80.896c-17.254-29.952-56.73-42.65-87.706-28.467l-81.92 37.581c-31.13 14.336-54.938-2.15-53.094-36.659l4.403-82.688c1.894-34.509-23.603-69.99-56.525-78.899l-79.104-21.197c-32.87-8.909-38.912-34.816-13.312-57.6l88.422-78.797c25.6-22.784 25.6-60.109 0-82.893l-88.422-78.797c-25.6-22.784-18.842-44.902 15.002-48.998l107.264-13.005c33.843-4.096 52.685-34.304 41.882-67.123l-54.989-166.81c-10.803-32.819 4.608-45.517 34.202-28.416l126.106 73.011c29.594 17.101 69.427 7.68 88.525-20.89l52.326-78.797c19.046-28.621 47.667-27.085 63.488 3.482l46.029 88.73c15.872 30.618 53.862 43.11 84.378 27.802l88.781-44.39c30.618-15.206 54.118 0.512 52.275 34.918l-4.454 82.79c-1.792 34.509 23.603 69.888 56.627 78.797l79.002 21.299c32.973 8.909 39.014 34.816 13.414 57.6zM563.2 256h-102.4v102.4h102.4v-102.4zM563.2 409.6h-102.4v256h102.4v-256z" />
<glyph unicode="&#xe914;" glyph-name="old-phone" d="M883.507 345.446c-4.915 34.15-31.283 60.774-65.229 68.71-131.942 30.925-165.018 106.906-170.598 191.181-23.398 4.352-65.024 9.062-135.68 9.062s-112.282-4.71-135.68-9.062c-5.581-84.275-38.656-160.256-170.598-191.181-33.946-7.987-60.314-34.56-65.229-68.71l-25.446-176.23c-8.96-62.054 36.608-118.016 99.994-118.016h593.92c63.334 0 108.954 55.962 99.994 118.016l-25.446 176.23zM512 179.61c-71.424 0-129.331 57.344-129.331 128s57.907 128 129.331 128 129.331-57.344 129.331-128-57.958-128-129.331-128zM1021.44 665.6c-1.229 76.8-196.71 204.749-509.44 204.8-312.781-0.051-508.262-128-509.44-204.8s1.075-176.742 129.792-160.102c150.579 19.507 141.312 72.090 141.312 147.251 0 52.429 122.47 65.075 238.336 65.075s238.285-12.646 238.336-65.075c0-75.162-9.267-127.744 141.312-147.251 128.666-16.64 130.97 83.302 129.792 160.102z" />
<glyph unicode="&#xe915;" glyph-name="reply" d="M972.8 118.528c0 0-113.92 498.278-563.2 498.278v203.981l-358.4-336.538 358.4-342.528v223.078c243.866 0.051 436.019-21.555 563.2-246.272z" />
<glyph unicode="&#xe916;" glyph-name="shopping-cart" d="M665.6 102.4c0-56.525 45.773-102.4 102.4-102.4 56.525 0 102.4 45.875 102.4 102.4 0 56.627-45.875 102.4-102.4 102.4-56.627 0-102.4-45.773-102.4-102.4zM153.6 102.4c0-56.525 45.824-102.4 102.4-102.4 56.474 0 102.4 45.875 102.4 102.4 0 56.627-45.926 102.4-102.4 102.4-56.576 0-102.4-45.773-102.4-102.4zM335.206 349.594l566.682 161.894c10.803 3.123 19.712 14.797 19.712 26.112v281.6h-716.8v81.92c0 11.264-9.267 20.48-20.429 20.48h-163.942c-11.213 0-20.429-9.216-20.429-20.48v-81.92h102.4l97.792-458.598 4.608-48.282v-84.429c0-11.213 9.216-20.48 20.48-20.48h675.84c11.264 0 20.48 9.318 20.48 20.48v79.309h-575.898c-58.88 0-60.109 28.211-10.496 42.394z" />
<glyph unicode="&#xe917;" glyph-name="sound-mix" d="M256 890.88c0 28.314-22.938 30.72-51.2 30.72-28.314 0-51.2-2.406-51.2-30.72v-430.080h102.4v430.080zM153.6 30.72c0-28.211 22.886-30.72 51.2-30.72 28.262 0 51.2 2.509 51.2 30.72v174.080h-102.4v-174.080zM327.629 409.6h-245.76c-28.314 0-30.669-22.938-30.669-51.2v-51.2c0-28.314 2.355-51.2 30.669-51.2h245.811c28.16 0 30.72 22.886 30.72 51.2v51.2c0 28.262-2.56 51.2-30.771 51.2zM942.029 358.4h-245.811c-28.262 0-30.618-22.938-30.618-51.2v-51.2c0-28.314 2.355-51.2 30.669-51.2h245.811c28.16 0 30.72 22.886 30.72 51.2v51.2c0 28.262-2.56 51.2-30.771 51.2zM665.6 614.4c0 28.262-2.56 51.2-30.771 51.2h-245.76c-28.314 0-30.669-22.938-30.669-51.2v-51.2c0-28.314 2.355-51.2 30.669-51.2h245.811c28.16 0 30.72 22.886 30.72 51.2v51.2zM563.2 890.88c0 28.314-22.938 30.72-51.2 30.72-28.314 0-51.2-2.406-51.2-30.72v-174.080h102.4v174.080zM460.8 30.72c0-28.211 22.886-30.72 51.2-30.72 28.262 0 51.2 2.509 51.2 30.72v430.080h-102.4v-430.080zM870.4 890.88c0 28.314-22.938 30.72-51.2 30.72-28.314 0-51.2-2.406-51.2-30.72v-481.28h102.4v481.28zM768 30.72c0-28.211 22.886-30.72 51.2-30.72 28.262 0 51.2 2.509 51.2 30.72v122.88h-102.4v-122.88z" />
<glyph unicode="&#xe918;" glyph-name="download2" d="M896 448h-160l-224-224-224 224h-160l-128-256v-64h1024v64l-128 256zM0 64h1024v-64h-1024v64zM576 640v256h-128v-256h-224l288-288 288 288h-224z" />
<glyph unicode="&#xe919;" glyph-name="tools" d="M160.512 620.032c47.77 37.12 87.398 11.52 140.288-49.715 5.939-6.912 13.926 1.178 18.483 5.12 4.506 3.994 74.291 66.816 77.722 69.683 3.379 3.021 7.475 8.653 2.099 14.95-5.478 6.298-25.293 32-38.042 48.691-92.57 121.088 253.235 203.213 200.141 204.493-27.034 0.717-135.475 1.997-151.706 0.205-65.69-6.912-148.173-68.301-189.696-96.922-54.323-37.171-74.598-58.982-77.926-62.003-15.36-13.414-2.458-44.39-30.31-68.813-29.44-25.754-47.821-6.246-64.87-21.197-8.448-7.475-32.102-25.19-38.861-31.078-6.81-5.99-8.038-16.077-1.075-24.115 0 0 64.717-71.475 70.144-77.824 5.376-6.246 20.019-11.674 29.030-3.635 9.062 7.987 32.358 28.314 36.25 31.898 3.994 3.379-2.56 44.083 18.33 60.262zM452.762 593.562c-6.144 7.117-13.773 7.322-20.326 1.485l-73.421-64.102c-5.786-5.12-6.605-14.49-1.382-20.48l424.653-483.277c9.933-11.418 27.136-12.595 38.451-2.714l49.664 41.626c11.366 9.984 12.544 27.29 2.662 38.81l-420.301 488.653zM1018.982 799.232c-3.789 25.293-16.896 20.019-23.706 9.318-6.81-10.803-36.915-56.422-49.306-77.107-12.288-20.48-42.598-60.979-99.021-20.992-58.778 41.523-38.349 70.502-28.109 90.010 10.291 19.61 41.882 74.598 46.438 81.408 4.557 6.912-0.768 26.982-18.995 18.586-18.278-8.397-129.178-52.48-144.538-115.712-15.718-64.307 13.158-121.805-43.52-178.893l-68.762-71.68 69.069-80.179 84.685 80.384c20.173 20.275 63.283 39.987 102.298 31.078 83.61-18.893 129.229 12.493 156.723 64.41 24.678 46.387 20.582 144.077 16.742 169.37zM140.237 99.686c-10.65-10.701-10.65-28.109 0-38.81l48.691-47.616c10.65-10.701 27.546-6.195 38.195 4.506l251.238 246.989-76.954 87.757-261.171-252.826z" />
<glyph unicode="&#xe91a;" glyph-name="user" d="M576 253.388v52.78c70.498 39.728 128 138.772 128 237.832 0 159.058 0 288-192 288s-192-128.942-192-288c0-99.060 57.502-198.104 128-237.832v-52.78c-217.102-17.748-384-124.42-384-253.388h896c0 128.968-166.898 235.64-384 253.388z" />
<glyph unicode="&#xe91b;" glyph-name="file-pdf" d="M842.012 370.52c-13.648 13.446-43.914 20.566-89.972 21.172-31.178 0.344-68.702-2.402-108.17-7.928-17.674 10.198-35.892 21.294-50.188 34.658-38.462 35.916-70.568 85.772-90.576 140.594 1.304 5.12 2.414 9.62 3.448 14.212 0 0 21.666 123.060 15.932 164.666-0.792 5.706-1.276 7.362-2.808 11.796l-1.882 4.834c-5.894 13.592-17.448 27.994-35.564 27.208l-10.916 0.344c-20.202 0-36.664-10.332-40.986-25.774-13.138-48.434 0.418-120.892 24.98-214.738l-6.288-15.286c-17.588-42.876-39.63-86.060-59.078-124.158l-2.528-4.954c-20.46-40.040-39.026-74.028-55.856-102.822l-17.376-9.188c-1.264-0.668-31.044-16.418-38.028-20.644-59.256-35.38-98.524-75.542-105.038-107.416-2.072-10.17-0.53-23.186 10.014-29.212l16.806-8.458c7.292-3.652 14.978-5.502 22.854-5.502 42.206 0 91.202 52.572 158.698 170.366 77.93 25.37 166.652 46.458 244.412 58.090 59.258-33.368 132.142-56.544 178.142-56.544 8.168 0 15.212 0.78 20.932 2.294 8.822 2.336 16.258 7.368 20.792 14.194 8.926 13.432 10.734 31.932 8.312 50.876-0.72 5.622-5.21 12.574-10.068 17.32zM211.646 145.952c7.698 21.042 38.16 62.644 83.206 99.556 2.832 2.296 9.808 8.832 16.194 14.902-47.104-75.124-78.648-105.066-99.4-114.458zM478.434 760.314c13.566 0 21.284-34.194 21.924-66.254s-6.858-54.56-16.158-71.208c-7.702 24.648-11.426 63.5-11.426 88.904 0 0-0.566 48.558 5.66 48.558v0zM398.852 322.506c9.45 16.916 19.282 34.756 29.33 53.678 24.492 46.316 39.958 82.556 51.478 112.346 22.91-41.684 51.444-77.12 84.984-105.512 4.186-3.542 8.62-7.102 13.276-10.65-68.21-13.496-127.164-29.91-179.068-49.862v0zM828.902 326.348c-4.152-2.598-16.052-4.1-23.708-4.1-24.708 0-55.272 11.294-98.126 29.666 16.468 1.218 31.562 1.838 45.102 1.838 24.782 0 32.12 0.108 56.35-6.072 24.228-6.18 24.538-18.734 20.382-21.332v0zM917.806 730.924c-22.21 30.292-53.174 65.7-87.178 99.704s-69.412 64.964-99.704 87.178c-51.574 37.82-76.592 42.194-90.924 42.194h-496c-44.112 0-80-35.888-80-80v-864c0-44.112 35.886-80 80-80h736c44.112 0 80 35.888 80 80v624c0 14.332-4.372 39.35-42.194 90.924v0zM785.374 785.374c30.7-30.7 54.8-58.398 72.58-81.374h-153.954v153.946c22.982-17.78 50.678-41.878 81.374-72.572v0zM896 16c0-8.672-7.328-16-16-16h-736c-8.672 0-16 7.328-16 16v864c0 8.672 7.328 16 16 16 0 0 495.956 0.002 496 0v-224c0-17.672 14.324-32 32-32h224v-624z" />
<glyph unicode="&#xe91c;" glyph-name="file-excel" d="M743.028 576h-135.292l-95.732-141.032-95.742 141.032h-135.29l162.162-242.464-182.972-269.536h251.838v91.576h-50.156l50.156 74.994 111.396-166.57h140.444l-182.976 269.536 162.164 242.464zM917.806 730.924c-22.21 30.292-53.174 65.7-87.178 99.704s-69.412 64.964-99.704 87.178c-51.574 37.82-76.592 42.194-90.924 42.194h-496c-44.112 0-80-35.888-80-80v-864c0-44.112 35.886-80 80-80h736c44.112 0 80 35.888 80 80v624c0 14.332-4.372 39.35-42.194 90.924v0zM785.374 785.374c30.7-30.7 54.8-58.398 72.58-81.374h-153.954v153.946c22.982-17.78 50.678-41.878 81.374-72.572v0zM896 16c0-8.672-7.328-16-16-16h-736c-8.672 0-16 7.328-16 16v864c0 8.672 7.328 16 16 16 0 0 495.956 0.002 496 0v-224c0-17.672 14.324-32 32-32h224v-624z" />
<glyph unicode="&#xe91d;" glyph-name="sort-alpha-asc" d="M320 192v768h-128v-768h-160l224-224 224 224h-160zM928-64h-256c-11.8 0-22.644 6.496-28.214 16.9-5.566 10.404-4.958 23.030 1.59 32.85l222.832 334.25h-196.208c-17.672 0-32 14.328-32 32s14.328 32 32 32h256c11.8 0 22.644-6.496 28.214-16.9 5.566-10.404 4.958-23.030-1.59-32.85l-222.83-334.25h196.206c17.672 0 32-14.328 32-32s-14.328-32-32-32zM1020.622 558.314l-192.002 384c-5.42 10.842-16.502 17.69-28.622 17.69-12.122 0-23.202-6.848-28.624-17.69l-191.996-384c-7.904-15.806-1.496-35.030 14.31-42.932 4.594-2.296 9.476-3.386 14.288-3.386 11.736 0 23.040 6.484 28.644 17.698l55.156 110.31h216.446l55.156-110.31c7.902-15.806 27.124-22.21 42.932-14.31 15.808 7.902 22.216 27.124 14.312 42.93zM723.778 704.004l76.22 152.446 76.224-152.446h-152.444z" />
<glyph unicode="&#xe91e;" glyph-name="sort-alpha-desc" d="M320 192v768h-128v-768h-160l224-224 224 224h-160zM928 512h-256c-11.8 0-22.644 6.496-28.214 16.9-5.566 10.406-4.958 23.030 1.59 32.85l222.832 334.25h-196.208c-17.672 0-32 14.328-32 32s14.328 32 32 32h256c11.8 0 22.644-6.496 28.214-16.9 5.566-10.406 4.958-23.030-1.59-32.85l-222.83-334.25h196.206c17.672 0 32-14.328 32-32s-14.328-32-32-32zM1020.622-17.69l-192.002 384c-5.42 10.842-16.502 17.69-28.622 17.69-12.122 0-23.202-6.848-28.624-17.69l-191.996-384c-7.904-15.806-1.496-35.030 14.31-42.932 4.594-2.296 9.476-3.386 14.288-3.386 11.736 0 23.040 6.484 28.644 17.698l55.158 110.31h216.446l55.156-110.31c7.902-15.806 27.124-22.21 42.932-14.31 15.806 7.902 22.214 27.124 14.31 42.93zM723.778 128l76.22 152.446 76.226-152.446h-152.446z" />
<glyph unicode="&#xe91f;" glyph-name="sort-numeric-asc" d="M320 192v768h-128v-768h-160l224-224 224 224h-160zM864 512c-17.674 0-32 14.328-32 32v352h-32c-17.674 0-32 14.328-32 32s14.326 32 32 32h64c17.674 0 32-14.328 32-32v-384c0-17.672-14.326-32-32-32zM928 384h-192c-17.674 0-32-14.326-32-32v-192c0-17.674 14.326-32 32-32h160v-128h-160c-17.674 0-32-14.326-32-32s14.326-32 32-32h192c17.674 0 32 14.326 32 32v384c0 17.674-14.326 32-32 32zM768 320h128v-128h-128v128z" />
<glyph unicode="&#xe920;" glyph-name="sort-numberic-desc" d="M320 192v768h-128v-768h-160l224-224 224 224h-160zM864-64c-17.674 0-32 14.328-32 32v352h-32c-17.674 0-32 14.328-32 32s14.326 32 32 32h64c17.674 0 32-14.328 32-32v-384c0-17.672-14.326-32-32-32zM928 960h-192c-17.674 0-32-14.326-32-32v-192c0-17.674 14.326-32 32-32h160v-128h-160c-17.674 0-32-14.326-32-32s14.326-32 32-32h192c17.674 0 32 14.326 32 32v384c0 17.674-14.326 32-32 32zM768 896h128v-128h-128v128z" />
</font></defs></svg>